Practice_data/LDC_0123-1.CSV

Format,1.0B,
Memory Length,10000,
IntpDistance,0,
Trigger Address,4899,
Trigger Level,0.000E+00,
Source,CH1,
Vertical Units,V,
Vertical Units Div,0,
Vertical Units Extend Div,15,
Label,DATA,
Probe Type,0,
Probe Ratio,1.000E+00,
Vertical Scale,1.000E-02,
Vertical Position,0.000E+00,
Horizontal Units,S,
Horizontal Scale,5.000E-02,
Horizontal Position,5.000E-03,
Horizontal Mode,Main,
SincET Mode,Real Time,
Sampling Period,5.000E-05,
Horizontal Old Scale,5.000E-02,
Horizontal Old Position,5.000E-03,
Firmware,V1.09,
Mode,Detail,
Waveform Data,
-2.450000e-01,0.00e+00,
-2.449500e-01,4.00e-04,
-2.449000e-01,0.00e+00,
-2.448500e-01,4.00e-04,
-2.448000e-01,0.00e+00,
-2.447500e-01,4.00e-04,
-2.447000e-01,4.00e-04,
-2.446500e-01,0.00e+00,
-2.446000e-01,4.00e-04,
-2.445500e-01,0.00e+00,
-2.445000e-01,0.00e+00,
-2.444500e-01,0.00e+00,
-2.444000e-01,0.00e+00,
-2.443500e-01,0.00e+00,
-2.443000e-01,-4.00e-04,
-2.442500e-01,0.00e+00,
-2.442000e-01,-4.00e-04,
-2.441500e-01,-4.00e-04,
-2.441000e-01,-4.00e-04,
-2.440500e-01,-4.00e-04,
-2.440000e-01,-4.00e-04,
-2.439500e-01,-4.00e-04,
-2.439000e-01,0.00e+00,
-2.438500e-01,-4.00e-04,
-2.438000e-01,0.00e+00,
-2.437500e-01,-4.00e-04,
-2.437000e-01,0.00e+00,
-2.436500e-01,0.00e+00,
-2.436000e-01,-4.00e-04,
-2.435500e-01,0.00e+00,
-2.435000e-01,0.00e+00,
-2.434500e-01,-4.00e-04,
-2.434000e-01,4.00e-04,
-2.433500e-01,4.00e-04,
-2.433000e-01,4.00e-04,
-2.432500e-01,0.00e+00,
-2.432000e-01,-4.00e-04,
-2.431500e-01,0.00e+00,
-2.431000e-01,-4.00e-04,
-2.430500e-01,-4.00e-04,
-2.430000e-01,4.00e-04,
-2.429500e-01,0.00e+00,
-2.429000e-01,0.00e+00,
-2.428500e-01,0.00e+00,
-2.428000e-01,0.00e+00,
-2.427500e-01,4.00e-04,
-2.427000e-01,4.00e-04,
-2.426500e-01,4.00e-04,
-2.426000e-01,4.00e-04,
-2.425500e-01,0.00e+00,
-2.425000e-01,4.00e-04,
-2.424500e-01,0.00e+00,
-2.424000e-01,4.00e-04,
-2.423500e-01,4.00e-04,
-2.423000e-01,4.00e-04,
-2.422500e-01,0.00e+00,
-2.422000e-01,0.00e+00,
-2.421500e-01,0.00e+00,
-2.421000e-01,0.00e+00,
-2.420500e-01,4.00e-04,
-2.420000e-01,0.00e+00,
-2.419500e-01,4.00e-04,
-2.419000e-01,-4.00e-04,
-2.418500e-01,4.00e-04,
-2.418000e-01,0.00e+00,
-2.417500e-01,-4.00e-04,
-2.417000e-01,4.00e-04,
-2.416500e-01,-4.00e-04,
-2.416000e-01,0.00e+00,
-2.415500e-01,0.00e+00,
-2.415000e-01,0.00e+00,
-2.414500e-01,0.00e+00,
-2.414000e-01,0.00e+00,
-2.413500e-01,0.00e+00,
-2.413000e-01,0.00e+00,
-2.412500e-01,4.00e-04,
-2.412000e-01,4.00e-04,
-2.411500e-01,0.00e+00,
-2.411000e-01,0.00e+00,
-2.410500e-01,0.00e+00,
-2.410000e-01,0.00e+00,
-2.409500e-01,0.00e+00,
-2.409000e-01,0.00e+00,
-2.408500e-01,4.00e-04,
-2.408000e-01,0.00e+00,
-2.407500e-01,4.00e-04,
-2.407000e-01,4.00e-04,
-2.406500e-01,4.00e-04,
-2.406000e-01,0.00e+00,
-2.405500e-01,0.00e+00,
-2.405000e-01,0.00e+00,
-2.404500e-01,0.00e+00,
-2.404000e-01,0.00e+00,
-2.403500e-01,4.00e-04,
-2.403000e-01,0.00e+00,
-2.402500e-01,0.00e+00,
-2.402000e-01,0.00e+00,
-2.401500e-01,4.00e-04,
-2.401000e-01,0.00e+00,
-2.400500e-01,0.00e+00,
-2.400000e-01,0.00e+00,
-2.399500e-01,0.00e+00,
-2.399000e-01,0.00e+00,
-2.398500e-01,0.00e+00,
-2.398000e-01,0.00e+00,
-2.397500e-01,4.00e-04,
-2.397000e-01,0.00e+00,
-2.396500e-01,0.00e+00,
-2.396000e-01,0.00e+00,
-2.395500e-01,4.00e-04,
-2.395000e-01,-8.00e-04,
-2.394500e-01,0.00e+00,
-2.394000e-01,0.00e+00,
-2.393500e-01,0.00e+00,
-2.393000e-01,0.00e+00,
-2.392500e-01,0.00e+00,
-2.392000e-01,4.00e-04,
-2.391500e-01,0.00e+00,
-2.391000e-01,0.00e+00,
-2.390500e-01,0.00e+00,
-2.390000e-01,0.00e+00,
-2.389500e-01,0.00e+00,
-2.389000e-01,0.00e+00,
-2.388500e-01,0.00e+00,
-2.388000e-01,4.00e-04,
-2.387500e-01,0.00e+00,
-2.387000e-01,4.00e-04,
-2.386500e-01,0.00e+00,
-2.386000e-01,0.00e+00,
-2.385500e-01,0.00e+00,
-2.385000e-01,0.00e+00,
-2.384500e-01,4.00e-04,
-2.384000e-01,0.00e+00,
-2.383500e-01,0.00e+00,
-2.383000e-01,4.00e-04,
-2.382500e-01,0.00e+00,
-2.382000e-01,0.00e+00,
-2.381500e-01,0.00e+00,
-2.381000e-01,0.00e+00,
-2.380500e-01,0.00e+00,
-2.380000e-01,-4.00e-04,
-2.379500e-01,-4.00e-04,
-2.379000e-01,-4.00e-04,
-2.378500e-01,0.00e+00,
-2.378000e-01,0.00e+00,
-2.377500e-01,4.00e-04,
-2.377000e-01,0.00e+00,
-2.376500e-01,0.00e+00,
-2.376000e-01,-4.00e-04,
-2.375500e-01,-4.00e-04,
-2.375000e-01,0.00e+00,
-2.374500e-01,-4.00e-04,
-2.374000e-01,0.00e+00,
-2.373500e-01,0.00e+00,
-2.373000e-01,0.00e+00,
-2.372500e-01,0.00e+00,
-2.372000e-01,4.00e-04,
-2.371500e-01,4.00e-04,
-2.371000e-01,0.00e+00,
-2.370500e-01,4.00e-04,
-2.370000e-01,0.00e+00,
-2.369500e-01,0.00e+00,
-2.369000e-01,8.00e-04,
-2.368500e-01,0.00e+00,
-2.368000e-01,4.00e-04,
-2.367500e-01,-4.00e-04,
-2.367000e-01,4.00e-04,
-2.366500e-01,-4.00e-04,
-2.366000e-01,-4.00e-04,
-2.365500e-01,-4.00e-04,
-2.365000e-01,0.00e+00,
-2.364500e-01,-4.00e-04,
-2.364000e-01,8.00e-04,
-2.363500e-01,-4.00e-04,
-2.363000e-01,8.00e-04,
-2.362500e-01,0.00e+00,
-2.362000e-01,4.00e-04,
-2.361500e-01,4.00e-04,
-2.361000e-01,4.00e-04,
-2.360500e-01,4.00e-04,
-2.360000e-01,0.00e+00,
-2.359500e-01,-4.00e-04,
-2.359000e-01,0.00e+00,
-2.358500e-01,0.00e+00,
-2.358000e-01,0.00e+00,
-2.357500e-01,0.00e+00,
-2.357000e-01,8.00e-04,
-2.356500e-01,1.20e-03,
-2.356000e-01,-4.00e-04,
-2.355500e-01,-8.00e-04,
-2.355000e-01,4.00e-04,
-2.354500e-01,4.00e-04,
-2.354000e-01,-4.00e-04,
-2.353500e-01,-4.00e-04,
-2.353000e-01,-4.00e-04,
-2.352500e-01,-4.00e-04,
-2.352000e-01,0.00e+00,
-2.351500e-01,-4.00e-04,
-2.351000e-01,-4.00e-04,
-2.350500e-01,-4.00e-04,
-2.350000e-01,1.60e-03,
-2.349500e-01,0.00e+00,
-2.349000e-01,8.00e-04,
-2.348500e-01,0.00e+00,
-2.348000e-01,-4.00e-04,
-2.347500e-01,0.00e+00,
-2.347000e-01,-4.00e-04,
-2.346500e-01,-4.00e-04,
-2.346000e-01,0.00e+00,
-2.345500e-01,-1.20e-03,
-2.345000e-01,-4.00e-04,
-2.344500e-01,-4.00e-04,
-2.344000e-01,-1.20e-03,
-2.343500e-01,0.00e+00,
-2.343000e-01,-4.00e-04,
-2.342500e-01,0.00e+00,
-2.342000e-01,-4.00e-04,
-2.341500e-01,0.00e+00,
-2.341000e-01,0.00e+00,
-2.340500e-01,0.00e+00,
-2.340000e-01,-4.00e-04,
-2.339500e-01,0.00e+00,
-2.339000e-01,0.00e+00,
-2.338500e-01,0.00e+00,
-2.338000e-01,-4.00e-04,
-2.337500e-01,-4.00e-04,
-2.337000e-01,-4.00e-04,
-2.336500e-01,4.00e-04,
-2.336000e-01,-4.00e-04,
-2.335500e-01,-8.00e-04,
-2.335000e-01,-4.00e-04,
-2.334500e-01,-4.00e-04,
-2.334000e-01,-4.00e-04,
-2.333500e-01,-8.00e-04,
-2.333000e-01,-4.00e-04,
-2.332500e-01,-4.00e-04,
-2.332000e-01,-4.00e-04,
-2.331500e-01,0.00e+00,
-2.331000e-01,-4.00e-04,
-2.330500e-01,-4.00e-04,
-2.330000e-01,0.00e+00,
-2.329500e-01,0.00e+00,
-2.329000e-01,0.00e+00,
-2.328500e-01,0.00e+00,
-2.328000e-01,-4.00e-04,
-2.327500e-01,-4.00e-04,
-2.327000e-01,-4.00e-04,
-2.326500e-01,0.00e+00,
-2.326000e-01,4.00e-04,
-2.325500e-01,4.00e-04,
-2.325000e-01,0.00e+00,
-2.324500e-01,0.00e+00,
-2.324000e-01,0.00e+00,
-2.323500e-01,4.00e-04,
-2.323000e-01,0.00e+00,
-2.322500e-01,4.00e-04,
-2.322000e-01,0.00e+00,
-2.321500e-01,0.00e+00,
-2.321000e-01,0.00e+00,
-2.320500e-01,0.00e+00,
-2.320000e-01,-4.00e-04,
-2.319500e-01,-4.00e-04,
-2.319000e-01,-4.00e-04,
-2.318500e-01,-4.00e-04,
-2.318000e-01,-4.00e-04,
-2.317500e-01,4.00e-04,
-2.317000e-01,-4.00e-04,
-2.316500e-01,0.00e+00,
-2.316000e-01,0.00e+00,
-2.315500e-01,-4.00e-04,
-2.315000e-01,-4.00e-04,
-2.314500e-01,0.00e+00,
-2.314000e-01,4.00e-04,
-2.313500e-01,0.00e+00,
-2.313000e-01,0.00e+00,
-2.312500e-01,0.00e+00,
-2.312000e-01,-4.00e-04,
-2.311500e-01,-4.00e-04,
-2.311000e-01,0.00e+00,
-2.310500e-01,-4.00e-04,
-2.310000e-01,0.00e+00,
-2.309500e-01,0.00e+00,
-2.309000e-01,4.00e-04,
-2.308500e-01,4.00e-04,
-2.308000e-01,-4.00e-04,
-2.307500e-01,-4.00e-04,
-2.307000e-01,-4.00e-04,
-2.306500e-01,-4.00e-04,
-2.306000e-01,0.00e+00,
-2.305500e-01,0.00e+00,
-2.305000e-01,-4.00e-04,
-2.304500e-01,0.00e+00,
-2.304000e-01,-4.00e-04,
-2.303500e-01,-4.00e-04,
-2.303000e-01,-4.00e-04,
-2.302500e-01,-4.00e-04,
-2.302000e-01,-4.00e-04,
-2.301500e-01,0.00e+00,
-2.301000e-01,0.00e+00,
-2.300500e-01,0.00e+00,
-2.300000e-01,-8.00e-04,
-2.299500e-01,-4.00e-04,
-2.299000e-01,-4.00e-04,
-2.298500e-01,-4.00e-04,
-2.298000e-01,0.00e+00,
-2.297500e-01,0.00e+00,
-2.297000e-01,8.00e-04,
-2.296500e-01,8.00e-04,
-2.296000e-01,-4.00e-04,
-2.295500e-01,0.00e+00,
-2.295000e-01,0.00e+00,
-2.294500e-01,0.00e+00,
-2.294000e-01,-4.00e-04,
-2.293500e-01,0.00e+00,
-2.293000e-01,-4.00e-04,
-2.292500e-01,-4.00e-04,
-2.292000e-01,0.00e+00,
-2.291500e-01,0.00e+00,
-2.291000e-01,4.00e-04,
-2.290500e-01,4.00e-04,
-2.290000e-01,-4.00e-04,
-2.289500e-01,-4.00e-04,
-2.289000e-01,-4.00e-04,
-2.288500e-01,-4.00e-04,
-2.288000e-01,0.00e+00,
-2.287500e-01,0.00e+00,
-2.287000e-01,0.00e+00,
-2.286500e-01,0.00e+00,
-2.286000e-01,0.00e+00,
-2.285500e-01,0.00e+00,
-2.285000e-01,0.00e+00,
-2.284500e-01,4.00e-04,
-2.284000e-01,0.00e+00,
-2.283500e-01,4.00e-04,
-2.283000e-01,0.00e+00,
-2.282500e-01,4.00e-04,
-2.282000e-01,0.00e+00,
-2.281500e-01,0.00e+00,
-2.281000e-01,0.00e+00,
-2.280500e-01,0.00e+00,
-2.280000e-01,-4.00e-04,
-2.279500e-01,-4.00e-04,
-2.279000e-01,-4.00e-04,
-2.278500e-01,-4.00e-04,
-2.278000e-01,-4.00e-04,
-2.277500e-01,-4.00e-04,
-2.277000e-01,-4.00e-04,
-2.276500e-01,4.00e-04,
-2.276000e-01,-4.00e-04,
-2.275500e-01,-4.00e-04,
-2.275000e-01,-4.00e-04,
-2.274500e-01,0.00e+00,
-2.274000e-01,8.00e-04,
-2.273500e-01,8.00e-04,
-2.273000e-01,0.00e+00,
-2.272500e-01,0.00e+00,
-2.272000e-01,-4.00e-04,
-2.271500e-01,4.00e-04,
-2.271000e-01,-4.00e-04,
-2.270500e-01,4.00e-04,
-2.270000e-01,-4.00e-04,
-2.269500e-01,-4.00e-04,
-2.269000e-01,-4.00e-04,
-2.268500e-01,4.00e-04,
-2.268000e-01,0.00e+00,
-2.267500e-01,0.00e+00,
-2.267000e-01,-4.00e-04,
-2.266500e-01,-4.00e-04,
-2.266000e-01,-4.00e-04,
-2.265500e-01,-1.20e-03,
-2.265000e-01,0.00e+00,
-2.264500e-01,-1.20e-03,
-2.264000e-01,0.00e+00,
-2.263500e-01,0.00e+00,
-2.263000e-01,0.00e+00,
-2.262500e-01,0.00e+00,
-2.262000e-01,0.00e+00,
-2.261500e-01,4.00e-04,
-2.261000e-01,0.00e+00,
-2.260500e-01,0.00e+00,
-2.260000e-01,0.00e+00,
-2.259500e-01,4.00e-04,
-2.259000e-01,4.00e-04,
-2.258500e-01,4.00e-04,
-2.258000e-01,0.00e+00,
-2.257500e-01,0.00e+00,
-2.257000e-01,0.00e+00,
-2.256500e-01,0.00e+00,
-2.256000e-01,0.00e+00,
-2.255500e-01,0.00e+00,
-2.255000e-01,-4.00e-04,
-2.254500e-01,0.00e+00,
-2.254000e-01,4.00e-04,
-2.253500e-01,4.00e-04,
-2.253000e-01,4.00e-04,
-2.252500e-01,0.00e+00,
-2.252000e-01,4.00e-04,
-2.251500e-01,4.00e-04,
-2.251000e-01,4.00e-04,
-2.250500e-01,0.00e+00,
-2.250000e-01,-4.00e-04,
-2.249500e-01,-4.00e-04,
-2.249000e-01,-4.00e-04,
-2.248500e-01,0.00e+00,
-2.248000e-01,0.00e+00,
-2.247500e-01,0.00e+00,
-2.247000e-01,0.00e+00,
-2.246500e-01,0.00e+00,
-2.246000e-01,8.00e-04,
-2.245500e-01,8.00e-04,
-2.245000e-01,0.00e+00,
-2.244500e-01,0.00e+00,
-2.244000e-01,-4.00e-04,
-2.243500e-01,-4.00e-04,
-2.243000e-01,4.00e-04,
-2.242500e-01,4.00e-04,
-2.242000e-01,4.00e-04,
-2.241500e-01,4.00e-04,
-2.241000e-01,-4.00e-04,
-2.240500e-01,-4.00e-04,
-2.240000e-01,4.00e-04,
-2.239500e-01,-4.00e-04,
-2.239000e-01,-4.00e-04,
-2.238500e-01,-4.00e-04,
-2.238000e-01,-4.00e-04,
-2.237500e-01,-4.00e-04,
-2.237000e-01,0.00e+00,
-2.236500e-01,-4.00e-04,
-2.236000e-01,-4.00e-04,
-2.235500e-01,-4.00e-04,
-2.235000e-01,0.00e+00,
-2.234500e-01,0.00e+00,
-2.234000e-01,4.00e-04,
-2.233500e-01,4.00e-04,
-2.233000e-01,4.00e-04,
-2.232500e-01,0.00e+00,
-2.232000e-01,4.00e-04,
-2.231500e-01,0.00e+00,
-2.231000e-01,4.00e-04,
-2.230500e-01,0.00e+00,
-2.230000e-01,4.00e-04,
-2.229500e-01,4.00e-04,
-2.229000e-01,0.00e+00,
-2.228500e-01,0.00e+00,
-2.228000e-01,0.00e+00,
-2.227500e-01,-4.00e-04,
-2.227000e-01,0.00e+00,
-2.226500e-01,-4.00e-04,
-2.226000e-01,4.00e-04,
-2.225500e-01,0.00e+00,
-2.225000e-01,0.00e+00,
-2.224500e-01,4.00e-04,
-2.224000e-01,0.00e+00,
-2.223500e-01,0.00e+00,
-2.223000e-01,0.00e+00,
-2.222500e-01,0.00e+00,
-2.222000e-01,-4.00e-04,
-2.221500e-01,-4.00e-04,
-2.221000e-01,-4.00e-04,
-2.220500e-01,4.00e-04,
-2.220000e-01,4.00e-04,
-2.219500e-01,-4.00e-04,
-2.219000e-01,-4.00e-04,
-2.218500e-01,-4.00e-04,
-2.218000e-01,-4.00e-04,
-2.217500e-01,-4.00e-04,
-2.217000e-01,-4.00e-04,
-2.216500e-01,-4.00e-04,
-2.216000e-01,-4.00e-04,
-2.215500e-01,-4.00e-04,
-2.215000e-01,0.00e+00,
-2.214500e-01,-4.00e-04,
-2.214000e-01,4.00e-04,
-2.213500e-01,0.00e+00,
-2.213000e-01,4.00e-04,
-2.212500e-01,0.00e+00,
-2.212000e-01,0.00e+00,
-2.211500e-01,0.00e+00,
-2.211000e-01,4.00e-04,
-2.210500e-01,4.00e-04,
-2.210000e-01,0.00e+00,
-2.209500e-01,0.00e+00,
-2.209000e-01,-4.00e-04,
-2.208500e-01,4.00e-04,
-2.208000e-01,0.00e+00,
-2.207500e-01,0.00e+00,
-2.207000e-01,4.00e-04,
-2.206500e-01,4.00e-04,
-2.206000e-01,-4.00e-04,
-2.205500e-01,-4.00e-04,
-2.205000e-01,0.00e+00,
-2.204500e-01,0.00e+00,
-2.204000e-01,0.00e+00,
-2.203500e-01,0.00e+00,
-2.203000e-01,0.00e+00,
-2.202500e-01,0.00e+00,
-2.202000e-01,-4.00e-04,
-2.201500e-01,0.00e+00,
-2.201000e-01,-4.00e-04,
-2.200500e-01,-4.00e-04,
-2.200000e-01,0.00e+00,
-2.199500e-01,0.00e+00,
-2.199000e-01,4.00e-04,
-2.198500e-01,0.00e+00,
-2.198000e-01,0.00e+00,
-2.197500e-01,-4.00e-04,
-2.197000e-01,-4.00e-04,
-2.196500e-01,0.00e+00,
-2.196000e-01,4.00e-04,
-2.195500e-01,4.00e-04,
-2.195000e-01,4.00e-04,
-2.194500e-01,0.00e+00,
-2.194000e-01,0.00e+00,
-2.193500e-01,-4.00e-04,
-2.193000e-01,-4.00e-04,
-2.192500e-01,-4.00e-04,
-2.192000e-01,4.00e-04,
-2.191500e-01,0.00e+00,
-2.191000e-01,4.00e-04,
-2.190500e-01,4.00e-04,
-2.190000e-01,-4.00e-04,
-2.189500e-01,0.00e+00,
-2.189000e-01,-4.00e-04,
-2.188500e-01,-4.00e-04,
-2.188000e-01,0.00e+00,
-2.187500e-01,0.00e+00,
-2.187000e-01,0.00e+00,
-2.186500e-01,4.00e-04,
-2.186000e-01,-4.00e-04,
-2.185500e-01,8.00e-04,
-2.185000e-01,0.00e+00,
-2.184500e-01,8.00e-04,
-2.184000e-01,-4.00e-04,
-2.183500e-01,0.00e+00,
-2.183000e-01,0.00e+00,
-2.182500e-01,0.00e+00,
-2.182000e-01,0.00e+00,
-2.181500e-01,-4.00e-04,
-2.181000e-01,0.00e+00,
-2.180500e-01,0.00e+00,
-2.180000e-01,-4.00e-04,
-2.179500e-01,-4.00e-04,
-2.179000e-01,-4.00e-04,
-2.178500e-01,-4.00e-04,
-2.178000e-01,-4.00e-04,
-2.177500e-01,-4.00e-04,
-2.177000e-01,-4.00e-04,
-2.176500e-01,-4.00e-04,
-2.176000e-01,0.00e+00,
-2.175500e-01,8.00e-04,
-2.175000e-01,0.00e+00,
-2.174500e-01,0.00e+00,
-2.174000e-01,-4.00e-04,
-2.173500e-01,4.00e-04,
-2.173000e-01,4.00e-04,
-2.172500e-01,-4.00e-04,
-2.172000e-01,-4.00e-04,
-2.171500e-01,-4.00e-04,
-2.171000e-01,-4.00e-04,
-2.170500e-01,-8.00e-04,
-2.170000e-01,-4.00e-04,
-2.169500e-01,-8.00e-04,
-2.169000e-01,4.00e-04,
-2.168500e-01,-4.00e-04,
-2.168000e-01,0.00e+00,
-2.167500e-01,-4.00e-04,
-2.167000e-01,-4.00e-04,
-2.166500e-01,-4.00e-04,
-2.166000e-01,-4.00e-04,
-2.165500e-01,-4.00e-04,
-2.165000e-01,-4.00e-04,
-2.164500e-01,-4.00e-04,
-2.164000e-01,4.00e-04,
-2.163500e-01,0.00e+00,
-2.163000e-01,4.00e-04,
-2.162500e-01,0.00e+00,
-2.162000e-01,0.00e+00,
-2.161500e-01,0.00e+00,
-2.161000e-01,0.00e+00,
-2.160500e-01,0.00e+00,
-2.160000e-01,0.00e+00,
-2.159500e-01,0.00e+00,
-2.159000e-01,0.00e+00,
-2.158500e-01,0.00e+00,
-2.158000e-01,0.00e+00,
-2.157500e-01,0.00e+00,
-2.157000e-01,-4.00e-04,
-2.156500e-01,0.00e+00,
-2.156000e-01,-4.00e-04,
-2.155500e-01,0.00e+00,
-2.155000e-01,-4.00e-04,
-2.154500e-01,-4.00e-04,
-2.154000e-01,0.00e+00,
-2.153500e-01,0.00e+00,
-2.153000e-01,4.00e-04,
-2.152500e-01,0.00e+00,
-2.152000e-01,0.00e+00,
-2.151500e-01,0.00e+00,
-2.151000e-01,0.00e+00,
-2.150500e-01,8.00e-04,
-2.150000e-01,-4.00e-04,
-2.149500e-01,0.00e+00,
-2.149000e-01,-8.00e-04,
-2.148500e-01,0.00e+00,
-2.148000e-01,0.00e+00,
-2.147500e-01,0.00e+00,
-2.147000e-01,-4.00e-04,
-2.146500e-01,8.00e-04,
-2.146000e-01,4.00e-04,
-2.145500e-01,-4.00e-04,
-2.145000e-01,-4.00e-04,
-2.144500e-01,-4.00e-04,
-2.144000e-01,4.00e-04,
-2.143500e-01,-4.00e-04,
-2.143000e-01,-4.00e-04,
-2.142500e-01,-4.00e-04,
-2.142000e-01,0.00e+00,
-2.141500e-01,-4.00e-04,
-2.141000e-01,0.00e+00,
-2.140500e-01,-4.00e-04,
-2.140000e-01,0.00e+00,
-2.139500e-01,0.00e+00,
-2.139000e-01,0.00e+00,
-2.138500e-01,0.00e+00,
-2.138000e-01,-8.00e-04,
-2.137500e-01,-4.00e-04,
-2.137000e-01,-4.00e-04,
-2.136500e-01,-4.00e-04,
-2.136000e-01,-8.00e-04,
-2.135500e-01,-4.00e-04,
-2.135000e-01,-4.00e-04,
-2.134500e-01,-8.00e-04,
-2.134000e-01,-4.00e-04,
-2.133500e-01,-1.20e-03,
-2.133000e-01,-4.00e-04,
-2.132500e-01,-4.00e-04,
-2.132000e-01,4.00e-04,
-2.131500e-01,0.00e+00,
-2.131000e-01,0.00e+00,
-2.130500e-01,0.00e+00,
-2.130000e-01,-4.00e-04,
-2.129500e-01,-4.00e-04,
-2.129000e-01,0.00e+00,
-2.128500e-01,0.00e+00,
-2.128000e-01,0.00e+00,
-2.127500e-01,4.00e-04,
-2.127000e-01,0.00e+00,
-2.126500e-01,0.00e+00,
-2.126000e-01,0.00e+00,
-2.125500e-01,0.00e+00,
-2.125000e-01,0.00e+00,
-2.124500e-01,0.00e+00,
-2.124000e-01,-4.00e-04,
-2.123500e-01,-4.00e-04,
-2.123000e-01,-4.00e-04,
-2.122500e-01,0.00e+00,
-2.122000e-01,0.00e+00,
-2.121500e-01,0.00e+00,
-2.121000e-01,0.00e+00,
-2.120500e-01,8.00e-04,
-2.120000e-01,0.00e+00,
-2.119500e-01,-4.00e-04,
-2.119000e-01,-4.00e-04,
-2.118500e-01,-4.00e-04,
-2.118000e-01,0.00e+00,
-2.117500e-01,0.00e+00,
-2.117000e-01,0.00e+00,
-2.116500e-01,0.00e+00,
-2.116000e-01,0.00e+00,
-2.115500e-01,0.00e+00,
-2.115000e-01,-8.00e-04,
-2.114500e-01,0.00e+00,
-2.114000e-01,0.00e+00,
-2.113500e-01,4.00e-04,
-2.113000e-01,-4.00e-04,
-2.112500e-01,0.00e+00,
-2.112000e-01,-4.00e-04,
-2.111500e-01,-4.00e-04,
-2.111000e-01,-4.00e-04,
-2.110500e-01,-4.00e-04,
-2.110000e-01,4.00e-04,
-2.109500e-01,-8.00e-04,
-2.109000e-01,0.00e+00,
-2.108500e-01,0.00e+00,
-2.108000e-01,4.00e-04,
-2.107500e-01,0.00e+00,
-2.107000e-01,4.00e-04,
-2.106500e-01,0.00e+00,
-2.106000e-01,0.00e+00,
-2.105500e-01,0.00e+00,
-2.105000e-01,0.00e+00,
-2.104500e-01,0.00e+00,
-2.104000e-01,0.00e+00,
-2.103500e-01,4.00e-04,
-2.103000e-01,0.00e+00,
-2.102500e-01,0.00e+00,
-2.102000e-01,0.00e+00,
-2.101500e-01,0.00e+00,
-2.101000e-01,0.00e+00,
-2.100500e-01,-8.00e-04,
-2.100000e-01,0.00e+00,
-2.099500e-01,4.00e-04,
-2.099000e-01,0.00e+00,
-2.098500e-01,0.00e+00,
-2.098000e-01,-4.00e-04,
-2.097500e-01,-4.00e-04,
-2.097000e-01,-4.00e-04,
-2.096500e-01,-4.00e-04,
-2.096000e-01,4.00e-04,
-2.095500e-01,0.00e+00,
-2.095000e-01,0.00e+00,
-2.094500e-01,0.00e+00,
-2.094000e-01,0.00e+00,
-2.093500e-01,0.00e+00,
-2.093000e-01,0.00e+00,
-2.092500e-01,0.00e+00,
-2.092000e-01,-1.20e-03,
-2.091500e-01,0.00e+00,
-2.091000e-01,-4.00e-04,
-2.090500e-01,-4.00e-04,
-2.090000e-01,-8.00e-04,
-2.089500e-01,0.00e+00,
-2.089000e-01,0.00e+00,
-2.088500e-01,0.00e+00,
-2.088000e-01,8.00e-04,
-2.087500e-01,0.00e+00,
-2.087000e-01,0.00e+00,
-2.086500e-01,0.00e+00,
-2.086000e-01,-4.00e-04,
-2.085500e-01,-4.00e-04,
-2.085000e-01,-4.00e-04,
-2.084500e-01,-4.00e-04,
-2.084000e-01,4.00e-04,
-2.083500e-01,-4.00e-04,
-2.083000e-01,-4.00e-04,
-2.082500e-01,-4.00e-04,
-2.082000e-01,-4.00e-04,
-2.081500e-01,4.00e-04,
-2.081000e-01,4.00e-04,
-2.080500e-01,-4.00e-04,
-2.080000e-01,4.00e-04,
-2.079500e-01,-4.00e-04,
-2.079000e-01,-4.00e-04,
-2.078500e-01,-4.00e-04,
-2.078000e-01,-4.00e-04,
-2.077500e-01,0.00e+00,
-2.077000e-01,-4.00e-04,
-2.076500e-01,0.00e+00,
-2.076000e-01,-4.00e-04,
-2.075500e-01,-4.00e-04,
-2.075000e-01,-4.00e-04,
-2.074500e-01,-4.00e-04,
-2.074000e-01,0.00e+00,
-2.073500e-01,4.00e-04,
-2.073000e-01,0.00e+00,
-2.072500e-01,0.00e+00,
-2.072000e-01,4.00e-04,
-2.071500e-01,0.00e+00,
-2.071000e-01,4.00e-04,
-2.070500e-01,4.00e-04,
-2.070000e-01,0.00e+00,
-2.069500e-01,0.00e+00,
-2.069000e-01,4.00e-04,
-2.068500e-01,0.00e+00,
-2.068000e-01,4.00e-04,
-2.067500e-01,4.00e-04,
-2.067000e-01,4.00e-04,
-2.066500e-01,4.00e-04,
-2.066000e-01,0.00e+00,
-2.065500e-01,0.00e+00,
-2.065000e-01,0.00e+00,
-2.064500e-01,0.00e+00,
-2.064000e-01,8.00e-04,
-2.063500e-01,8.00e-04,
-2.063000e-01,0.00e+00,
-2.062500e-01,8.00e-04,
-2.062000e-01,-4.00e-04,
-2.061500e-01,4.00e-04,
-2.061000e-01,-4.00e-04,
-2.060500e-01,4.00e-04,
-2.060000e-01,-4.00e-04,
-2.059500e-01,0.00e+00,
-2.059000e-01,-4.00e-04,
-2.058500e-01,0.00e+00,
-2.058000e-01,-4.00e-04,
-2.057500e-01,-4.00e-04,
-2.057000e-01,-4.00e-04,
-2.056500e-01,-4.00e-04,
-2.056000e-01,0.00e+00,
-2.055500e-01,-4.00e-04,
-2.055000e-01,0.00e+00,
-2.054500e-01,-4.00e-04,
-2.054000e-01,8.00e-04,
-2.053500e-01,0.00e+00,
-2.053000e-01,0.00e+00,
-2.052500e-01,0.00e+00,
-2.052000e-01,-4.00e-04,
-2.051500e-01,-4.00e-04,
-2.051000e-01,-4.00e-04,
